%YAML 1.1
%TAG !u! tag:unity3d.com,2011:
--- !u!74 &7400000
AnimationClip:
  m_ObjectHideFlags: 0
  m_PrefabParentObject: {fileID: 0}
  m_PrefabInternal: {fileID: 0}
  m_Name: CameraAnimation
  serializedVersion: 6
  m_Legacy: 0
  m_Compressed: 0
  m_UseHighQualityCurve: 1
  m_RotationCurves: []
  m_CompressedRotationCurves: []
  m_EulerCurves:
  - curve:
      serializedVersion: 2
      m_Curve:
      - serializedVersion: 2
        time: 0
        value: {x: 0, y: 0, z: 0}
        inSlope: {x: 0, y: 0, z: 0}
        outSlope: {x: 0, y: 0, z: 0}
        tangentMode: 0
      - serializedVersion: 2
        time: 5.7833333
        value: {x: 0.14500001, y: -2.7480001, z: -0.116000004}
        inSlope: {x: 0.027488152, y: -0.5209479, z: -0.02199052}
        outSlope: {x: 0.027488152, y: -0.5209479, z: -0.02199052}
        tangentMode: 0
      - serializedVersion: 2
        time: 21.1
        value: {x: 0.75100005, y: -52.169003, z: -0.96700007}
        inSlope: {x: 0, y: -2.4022746, z: -0.034150667}
        outSlope: {x: 0, y: -2.4022746, z: -0.034150667}
        tangentMode: 0
      - serializedVersion: 2
        time: 39.633335
        value: {x: -16.754002, y: -84.065, z: -1.2720001}
        inSlope: {x: 0, y: -2.7996325, z: 0}
        outSlope: {x: 0, y: -2.7996325, z: 0}
        tangentMode: 0
      - serializedVersion: 2
        time: 47.416668
        value: {x: -13.492001, y: -125.84601, z: 10.106001}
        inSlope: {x: 1.0180498, y: -11.328062, z: 3.5510018}
        outSlope: {x: 1.0180498, y: -11.328062, z: 3.5510018}
        tangentMode: 0
      - serializedVersion: 2
        time: 52.45
        value: {x: 1.7110001, y: -229.25299, z: 70.309006}
        inSlope: {x: 0, y: -5.6041827, z: 0}
        outSlope: {x: 0, y: -5.6041827, z: 0}
        tangentMode: 0
      - serializedVersion: 2
        time: 72.6
        value: {x: -11.059001, y: -266.978, z: 70.013}
        inSlope: {x: -0.32138708, y: -0.9600958, z: 0}
        outSlope: {x: -0.32138708, y: -0.9600958, z: 0}
        tangentMode: 0
      - serializedVersion: 2
        time: 93.78333
        value: {x: -14.380001, y: -276.899, z: 72.203}
        inSlope: {x: -0.24109836, y: -0.8546438, z: 0.18865779}
        outSlope: {x: -0.24109836, y: -0.8546438, z: 0.18865779}
        tangentMode: 0
      - serializedVersion: 2
        time: 119.03333
        value: {x: -22.254002, y: -316.75598, z: 85.234}
        inSlope: {x: -0.79905295, y: -1.9389515, z: 0.98382246}
        outSlope: {x: -0.79905295, y: -1.9389515, z: 0.98382246}
        tangentMode: 0
      - serializedVersion: 2
        time: 133.2
        value: {x: -80.11, y: -353.326, z: 110.982}
        inSlope: {x: 0, y: 0, z: 0}
        outSlope: {x: 0, y: 0, z: 0}
        tangentMode: 0
      - serializedVersion: 2
        time: 152.11667
        value: {x: -69.880005, y: -345.249, z: 85.797005}
        inSlope: {x: 1.0225737, y: 0, z: -0.35955024}
        outSlope: {x: 1.0225737, y: 0, z: -0.35955024}
        tangentMode: 0
      - serializedVersion: 2
        time: 173.21666
        value: {x: -8.249001, y: -351.969, z: 82.200005}
        inSlope: {x: 0.30981678, y: -0.43169484, z: -0.36030054}
        outSlope: {x: 0.30981678, y: -0.43169484, z: -0.36030054}
        tangentMode: 0
      - serializedVersion: 2
        time: 192.05
        value: {x: -5.156, y: -362.488, z: 67.121}
        inSlope: {x: 0, y: 0, z: 0}
        outSlope: {x: 0, y: 0, z: 0}
        tangentMode: 0
      m_PreInfinity: 2
      m_PostInfinity: 2
      m_RotationOrder: 4
    path: 
  m_PositionCurves:
  - curve:
      serializedVersion: 2
      m_Curve:
      - serializedVersion: 2
        time: 0
        value: {x: 0, y: 0, z: -3522}
        inSlope: {x: 0, y: 0, z: 0}
        outSlope: {x: 0, y: 0, z: 0}
        tangentMode: 0
      - serializedVersion: 2
        time: 5.883333
        value: {x: 98, y: 4, z: -3362}
        inSlope: {x: 15.023696, y: 0.6635071, z: 30.331755}
        outSlope: {x: 15.023696, y: 0.6635071, z: 30.331755}
        tangentMode: 0
      - serializedVersion: 2
        time: 21.1
        value: {x: 317, y: 14, z: -349}
        inSlope: {x: 1.8962963, y: 0, z: 38.51852}
        outSlope: {x: 1.8962963, y: 0, z: 38.51852}
        tangentMode: 0
      - serializedVersion: 2
        time: 39.633335
        value: {x: 333, y: 6, z: -24}
        inSlope: {x: 0, y: 0, z: 18.999367}
        outSlope: {x: 0, y: 0, z: 18.999367}
        tangentMode: 0
      - serializedVersion: 2
        time: 47.416668
        value: {x: 281, y: 23, z: 151}
        inSlope: {x: -16.228868, y: 5.305592, z: 15.604682}
        outSlope: {x: -16.228868, y: 5.305592, z: 15.604682}
        tangentMode: 0
      - serializedVersion: 2
        time: 52.45
        value: {x: 104, y: 89, z: 201}
        inSlope: {x: -12.26605, y: 0, z: 2.9424229}
        outSlope: {x: -12.26605, y: 0, z: 2.9424229}
        tangentMode: 0
      - serializedVersion: 2
        time: 72.6
        value: {x: -27.9, y: 67.5, z: 225.1}
        inSlope: {x: -5.160484, y: -0.95322585, z: 0}
        outSlope: {x: -5.160484, y: -0.95322585, z: 0}
        tangentMode: 0
      - serializedVersion: 2
        time: 93.78333
        value: {x: -109.3, y: 49.6, z: 223.9}
        inSlope: {x: -3.3833454, y: -1.2878679, z: -0.10337506}
        outSlope: {x: -3.3833454, y: -1.2878679, z: -0.10337506}
        tangentMode: 0
      - serializedVersion: 2
        time: 119.03333
        value: {x: -185, y: 7.7, z: 152.5}
        inSlope: {x: -2.582664, y: -0.69006336, z: -3.2727275}
        outSlope: {x: -2.582664, y: -0.69006336, z: -3.2727275}
        tangentMode: 0
      - serializedVersion: 2
        time: 133.2
        value: {x: -211.1, y: 0.9, z: 94.9}
        inSlope: {x: -1.1065995, y: 0, z: -3.1184883}
        outSlope: {x: -1.1065995, y: 0, z: -3.1184883}
        tangentMode: 0
      - serializedVersion: 2
        time: 152.11667
        value: {x: -221.61, y: 14.27, z: 49.33}
        inSlope: {x: -0.3118696, y: 1.1125364, z: -1.9366932}
        outSlope: {x: -0.3118696, y: 1.1125364, z: -1.9366932}
        tangentMode: 0
      - serializedVersion: 2
        time: 173.21666
        value: {x: -224.73, y: 45.42, z: 17.4}
        inSlope: {x: 0, y: 1.8951584, z: 0}
        outSlope: {x: 0, y: 1.8951584, z: 0}
        tangentMode: 0
      - serializedVersion: 2
        time: 192.05
        value: {x: -216.76, y: 89.95, z: 27.43}
        inSlope: {x: 0, y: 0, z: 0}
        outSlope: {x: 0, y: 0, z: 0}
        tangentMode: 0
      m_PreInfinity: 2
      m_PostInfinity: 2
      m_RotationOrder: 4
    path: 
  m_ScaleCurves: []
  m_FloatCurves:
  - curve:
      serializedVersion: 2
      m_Curve:
      - serializedVersion: 2
        time: 0
        value: 10
        inSlope: 0
        outSlope: 0
        tangentMode: 136
      - serializedVersion: 2
        time: 21.1
        value: 10
        inSlope: 0
        outSlope: 0
        tangentMode: 136
      m_PreInfinity: 2
      m_PostInfinity: 2
      m_RotationOrder: 4
    attribute: distance
    path: 
    classID: 114
    script: {fileID: 11500000, guid: 2109fd7a96894ca439bcb6d8bd439bfd, type: 3}
  - curve:
      serializedVersion: 2
      m_Curve:
      - serializedVersion: 2
        time: 0
        value: 1
        inSlope: 0
        outSlope: 0
        tangentMode: 136
      - serializedVersion: 2
        time: 189.6
        value: 1
        inSlope: 0
        outSlope: 0
        tangentMode: 136
      - serializedVersion: 2
        time: 190.25
        value: 0
        inSlope: 0
        outSlope: 0
        tangentMode: 136
      m_PreInfinity: 2
      m_PostInfinity: 2
      m_RotationOrder: 4
    attribute: Speed
    path: 
    classID: 95
    script: {fileID: 0}
  m_PPtrCurves: []
  m_SampleRate: 60
  m_WrapMode: 0
  m_Bounds:
    m_Center: {x: 0, y: 0, z: 0}
    m_Extent: {x: 0, y: 0, z: 0}
  m_ClipBindingConstant:
    genericBindings:
    - path: 0
      attribute: 1
      script: {fileID: 0}
      classID: 4
      customType: 0
      isPPtrCurve: 0
    - path: 0
      attribute: 4
      script: {fileID: 0}
      classID: 4
      customType: 14
      isPPtrCurve: 0
    - path: 0
      attribute: 3471299058
      script: {fileID: 0}
      classID: 95
      customType: 0
      isPPtrCurve: 0
    - path: 0
      attribute: 479369857
      script: {fileID: 11500000, guid: 2109fd7a96894ca439bcb6d8bd439bfd, type: 3}
      classID: 114
      customType: 0
      isPPtrCurve: 0
    pptrCurveMapping: []
  m_AnimationClipSettings:
    serializedVersion: 2
    m_AdditiveReferencePoseClip: {fileID: 0}
    m_AdditiveReferencePoseTime: 0
    m_StartTime: 0
    m_StopTime: 192.05
    m_OrientationOffsetY: 0
    m_Level: 0
    m_CycleOffset: 0
    m_HasAdditiveReferencePose: 0
    m_LoopTime: 0
    m_LoopBlend: 0
    m_LoopBlendOrientation: 0
    m_LoopBlendPositionY: 0
    m_LoopBlendPositionXZ: 0
    m_KeepOriginalOrientation: 0
    m_KeepOriginalPositionY: 1
    m_KeepOriginalPositionXZ: 0
    m_HeightFromFeet: 0
    m_Mirror: 0
  m_EditorCurves:
  - curve:
      serializedVersion: 2
      m_Curve:
      - serializedVersion: 2
        time: 0
        value: 0
        inSlope: 0
        outSlope: 0
        tangentMode: 136
      - serializedVersion: 2
        time: 5.883333
        value: 98
        inSlope: 15.023696
        outSlope: 15.023696
        tangentMode: 136
      - serializedVersion: 2
        time: 21.1
        value: 317
        inSlope: 1.8962963
        outSlope: 1.8962963
        tangentMode: 136
      - serializedVersion: 2
        time: 39.633335
        value: 333
        inSlope: 0
        outSlope: 0
        tangentMode: 136
      - serializedVersion: 2
        time: 47.416668
        value: 281
        inSlope: -16.228868
        outSlope: -16.228868
        tangentMode: 136
      - serializedVersion: 2
        time: 52.45
        value: 104
        inSlope: -12.26605
        outSlope: -12.26605
        tangentMode: 136
      - serializedVersion: 2
        time: 72.6
        value: -27.9
        inSlope: -5.160484
        outSlope: -5.160484
        tangentMode: 136
      - serializedVersion: 2
        time: 93.78333
        value: -109.3
        inSlope: -3.3833454
        outSlope: -3.3833454
        tangentMode: 136
      - serializedVersion: 2
        time: 119.03333
        value: -185
        inSlope: -2.582664
        outSlope: -2.582664
        tangentMode: 136
      - serializedVersion: 2
        time: 133.2
        value: -211.1
        inSlope: -1.1065995
        outSlope: -1.1065995
        tangentMode: 136
      - serializedVersion: 2
        time: 152.11667
        value: -221.61
        inSlope: -0.3118696
        outSlope: -0.3118696
        tangentMode: 136
      - serializedVersion: 2
        time: 173.21666
        value: -224.73
        inSlope: 0
        outSlope: 0
        tangentMode: 136
      - serializedVersion: 2
        time: 192.05
        value: -216.76
        inSlope: 0
        outSlope: 0
        tangentMode: 136
      m_PreInfinity: 2
      m_PostInfinity: 2
      m_RotationOrder: 4
    attribute: m_LocalPosition.x
    path: 
    classID: 4
    script: {fileID: 0}
  - curve:
      serializedVersion: 2
      m_Curve:
      - serializedVersion: 2
        time: 0
        value: 0
        inSlope: 0
        outSlope: 0
        tangentMode: 136
      - serializedVersion: 2
        time: 5.883333
        value: 4
        inSlope: 0.6635071
        outSlope: 0.6635071
        tangentMode: 136
      - serializedVersion: 2
        time: 21.1
        value: 14
        inSlope: 0
        outSlope: 0
        tangentMode: 136
      - serializedVersion: 2
        time: 39.633335
        value: 6
        inSlope: 0
        outSlope: 0
        tangentMode: 136
      - serializedVersion: 2
        time: 47.416668
        value: 23
        inSlope: 5.305592
        outSlope: 5.305592
        tangentMode: 136
      - serializedVersion: 2
        time: 52.45
        value: 89
        inSlope: 0
        outSlope: 0
        tangentMode: 136
      - serializedVersion: 2
        time: 72.6
        value: 67.5
        inSlope: -0.95322585
        outSlope: -0.95322585
        tangentMode: 136
      - serializedVersion: 2
        time: 93.78333
        value: 49.6
        inSlope: -1.2878679
        outSlope: -1.2878679
        tangentMode: 136
      - serializedVersion: 2
        time: 119.03333
        value: 7.7
        inSlope: -0.69006336
        outSlope: -0.69006336
        tangentMode: 136
      - serializedVersion: 2
        time: 133.2
        value: 0.9
        inSlope: 0
        outSlope: 0
        tangentMode: 136
      - serializedVersion: 2
        time: 152.11667
        value: 14.27
        inSlope: 1.1125364
        outSlope: 1.1125364
        tangentMode: 136
      - serializedVersion: 2
        time: 173.21666
        value: 45.42
        inSlope: 1.8951584
        outSlope: 1.8951584
        tangentMode: 136
      - serializedVersion: 2
        time: 192.05
        value: 89.95
        inSlope: 0
        outSlope: 0
        tangentMode: 136
      m_PreInfinity: 2
      m_PostInfinity: 2
      m_RotationOrder: 4
    attribute: m_LocalPosition.y
    path: 
    classID: 4
    script: {fileID: 0}
  - curve:
      serializedVersion: 2
      m_Curve:
      - serializedVersion: 2
        time: 0
        value: -3522
        inSlope: 0
        outSlope: 0
        tangentMode: 136
      - serializedVersion: 2
        time: 5.883333
        value: -3362
        inSlope: 30.331755
        outSlope: 30.331755
        tangentMode: 136
      - serializedVersion: 2
        time: 21.1
        value: -349
        inSlope: 38.51852
        outSlope: 38.51852
        tangentMode: 136
      - serializedVersion: 2
        time: 39.633335
        value: -24
        inSlope: 18.999367
        outSlope: 18.999367
        tangentMode: 136
      - serializedVersion: 2
        time: 47.416668
        value: 151
        inSlope: 15.604682
        outSlope: 15.604682
        tangentMode: 136
      - serializedVersion: 2
        time: 52.45
        value: 201
        inSlope: 2.9424229
        outSlope: 2.9424229
        tangentMode: 136
      - serializedVersion: 2
        time: 72.6
        value: 225.1
        inSlope: 0
        outSlope: 0
        tangentMode: 136
      - serializedVersion: 2
        time: 93.78333
        value: 223.9
        inSlope: -0.10337506
        outSlope: -0.10337506
        tangentMode: 136
      - serializedVersion: 2
        time: 119.03333
        value: 152.5
        inSlope: -3.2727275
        outSlope: -3.2727275
        tangentMode: 136
      - serializedVersion: 2
        time: 133.2
        value: 94.9
        inSlope: -3.1184883
        outSlope: -3.1184883
        tangentMode: 136
      - serializedVersion: 2
        time: 152.11667
        value: 49.33
        inSlope: -1.9366932
        outSlope: -1.9366932
        tangentMode: 136
      - serializedVersion: 2
        time: 173.21666
        value: 17.4
        inSlope: 0
        outSlope: 0
        tangentMode: 136
      - serializedVersion: 2
        time: 192.05
        value: 27.43
        inSlope: 0
        outSlope: 0
        tangentMode: 136
      m_PreInfinity: 2
      m_PostInfinity: 2
      m_RotationOrder: 4
    attribute: m_LocalPosition.z
    path: 
    classID: 4
    script: {fileID: 0}
  - curve:
      serializedVersion: 2
      m_Curve:
      - serializedVersion: 2
        time: 0
        value: 0
        inSlope: 0
        outSlope: 0
        tangentMode: 136
      - serializedVersion: 2
        time: 5.7833333
        value: 0.14500001
        inSlope: 0.027488152
        outSlope: 0.027488152
        tangentMode: 136
      - serializedVersion: 2
        time: 21.1
        value: 0.75100005
        inSlope: 0
        outSlope: 0
        tangentMode: 136
      - serializedVersion: 2
        time: 39.633335
        value: -16.754002
        inSlope: 0
        outSlope: 0
        tangentMode: 136
      - serializedVersion: 2
        time: 47.416668
        value: -13.492001
        inSlope: 1.0180498
        outSlope: 1.0180498
        tangentMode: 136
      - serializedVersion: 2
        time: 52.45
        value: 1.7110001
        inSlope: 0
        outSlope: 0
        tangentMode: 136
      - serializedVersion: 2
        time: 72.6
        value: -11.059001
        inSlope: -0.32138708
        outSlope: -0.32138708
        tangentMode: 136
      - serializedVersion: 2
        time: 93.78333
        value: -14.380001
        inSlope: -0.24109836
        outSlope: -0.24109836
        tangentMode: 136
      - serializedVersion: 2
        time: 119.03333
        value: -22.254002
        inSlope: -0.79905295
        outSlope: -0.79905295
        tangentMode: 136
      - serializedVersion: 2
        time: 133.2
        value: -80.11
        inSlope: 0
        outSlope: 0
        tangentMode: 136
      - serializedVersion: 2
        time: 152.11667
        value: -69.880005
        inSlope: 1.0225737
        outSlope: 1.0225737
        tangentMode: 136
      - serializedVersion: 2
        time: 173.21666
        value: -8.249001
        inSlope: 0.30981678
        outSlope: 0.30981678
        tangentMode: 136
      - serializedVersion: 2
        time: 192.05
        value: -5.156
        inSlope: 0
        outSlope: 0
        tangentMode: 136
      m_PreInfinity: 2
      m_PostInfinity: 2
      m_RotationOrder: 4
    attribute: localEulerAnglesRaw.x
    path: 
    classID: 4
    script: {fileID: 0}
  - curve:
      serializedVersion: 2
      m_Curve:
      - serializedVersion: 2
        time: 0
        value: 0
        inSlope: 0
        outSlope: 0
        tangentMode: 136
      - serializedVersion: 2
        time: 5.7833333
        value: -2.7480001
        inSlope: -0.5209479
        outSlope: -0.5209479
        tangentMode: 136
      - serializedVersion: 2
        time: 21.1
        value: -52.169003
        inSlope: -2.4022746
        outSlope: -2.4022746
        tangentMode: 136
      - serializedVersion: 2
        time: 39.633335
        value: -84.065
        inSlope: -2.7996325
        outSlope: -2.7996325
        tangentMode: 136
      - serializedVersion: 2
        time: 47.416668
        value: -125.84601
        inSlope: -11.328062
        outSlope: -11.328062
        tangentMode: 136
      - serializedVersion: 2
        time: 52.45
        value: -229.25299
        inSlope: -5.6041827
        outSlope: -5.6041827
        tangentMode: 136
      - serializedVersion: 2
        time: 72.6
        value: -266.978
        inSlope: -0.9600958
        outSlope: -0.9600958
        tangentMode: 136
      - serializedVersion: 2
        time: 93.78333
        value: -276.899
        inSlope: -0.8546438
        outSlope: -0.8546438
        tangentMode: 136
      - serializedVersion: 2
        time: 119.03333
        value: -316.75598
        inSlope: -1.9389515
        outSlope: -1.9389515
        tangentMode: 136
      - serializedVersion: 2
        time: 133.2
        value: -353.326
        inSlope: 0
        outSlope: 0
        tangentMode: 136
      - serializedVersion: 2
        time: 152.11667
        value: -345.249
        inSlope: 0
        outSlope: 0
        tangentMode: 136
      - serializedVersion: 2
        time: 173.21666
        value: -351.969
        inSlope: -0.43169484
        outSlope: -0.43169484
        tangentMode: 136
      - serializedVersion: 2
        time: 192.05
        value: -362.488
        inSlope: 0
        outSlope: 0
        tangentMode: 136
      m_PreInfinity: 2
      m_PostInfinity: 2
      m_RotationOrder: 4
    attribute: localEulerAnglesRaw.y
    path: 
    classID: 4
    script: {fileID: 0}
  - curve:
      serializedVersion: 2
      m_Curve:
      - serializedVersion: 2
        time: 0
        value: 0
        inSlope: 0
        outSlope: 0
        tangentMode: 136
      - serializedVersion: 2
        time: 5.7833333
        value: -0.116000004
        inSlope: -0.02199052
        outSlope: -0.02199052
        tangentMode: 136
      - serializedVersion: 2
        time: 21.1
        value: -0.96700007
        inSlope: -0.034150667
        outSlope: -0.034150667
        tangentMode: 136
      - serializedVersion: 2
        time: 39.633335
        value: -1.2720001
        inSlope: 0
        outSlope: 0
        tangentMode: 136
      - serializedVersion: 2
        time: 47.416668
        value: 10.106001
        inSlope: 3.5510018
        outSlope: 3.5510018
        tangentMode: 136
      - serializedVersion: 2
        time: 52.45
        value: 70.309006
        inSlope: 0
        outSlope: 0
        tangentMode: 136
      - serializedVersion: 2
        time: 72.6
        value: 70.013
        inSlope: 0
        outSlope: 0
        tangentMode: 136
      - serializedVersion: 2
        time: 93.78333
        value: 72.203
        inSlope: 0.18865779
        outSlope: 0.18865779
        tangentMode: 136
      - serializedVersion: 2
        time: 119.03333
        value: 85.234
        inSlope: 0.98382246
        outSlope: 0.98382246
        tangentMode: 136
      - serializedVersion: 2
        time: 133.2
        value: 110.982
        inSlope: 0
        outSlope: 0
        tangentMode: 136
      - serializedVersion: 2
        time: 152.11667
        value: 85.797005
        inSlope: -0.35955024
        outSlope: -0.35955024
        tangentMode: 136
      - serializedVersion: 2
        time: 173.21666
        value: 82.200005
        inSlope: -0.36030054
        outSlope: -0.36030054
        tangentMode: 136
      - serializedVersion: 2
        time: 192.05
        value: 67.121
        inSlope: 0
        outSlope: 0
        tangentMode: 136
      m_PreInfinity: 2
      m_PostInfinity: 2
      m_RotationOrder: 4
    attribute: localEulerAnglesRaw.z
    path: 
    classID: 4
    script: {fileID: 0}
  - curve:
      serializedVersion: 2
      m_Curve:
      - serializedVersion: 2
        time: 0
        value: 10
        inSlope: 0
        outSlope: 0
        tangentMode: 136
      - serializedVersion: 2
        time: 21.1
        value: 10
        inSlope: 0
        outSlope: 0
        tangentMode: 136
      m_PreInfinity: 2
      m_PostInfinity: 2
      m_RotationOrder: 4
    attribute: distance
    path: 
    classID: 114
    script: {fileID: 11500000, guid: 2109fd7a96894ca439bcb6d8bd439bfd, type: 3}
  - curve:
      serializedVersion: 2
      m_Curve:
      - serializedVersion: 2
        time: 0
        value: 1
        inSlope: 0
        outSlope: 0
        tangentMode: 136
      - serializedVersion: 2
        time: 189.6
        value: 1
        inSlope: 0
        outSlope: 0
        tangentMode: 136
      - serializedVersion: 2
        time: 190.25
        value: 0
        inSlope: 0
        outSlope: 0
        tangentMode: 136
      m_PreInfinity: 2
      m_PostInfinity: 2
      m_RotationOrder: 4
    attribute: Speed
    path: 
    classID: 95
    script: {fileID: 0}
  m_EulerEditorCurves:
  - curve:
      serializedVersion: 2
      m_Curve: []
      m_PreInfinity: 2
      m_PostInfinity: 2
      m_RotationOrder: 4
    attribute: m_LocalEulerAngles.x
    path: 
    classID: 4
    script: {fileID: 0}
  - curve:
      serializedVersion: 2
      m_Curve: []
      m_PreInfinity: 2
      m_PostInfinity: 2
      m_RotationOrder: 4
    attribute: m_LocalEulerAngles.y
    path: 
    classID: 4
    script: {fileID: 0}
  - curve:
      serializedVersion: 2
      m_Curve: []
      m_PreInfinity: 2
      m_PostInfinity: 2
      m_RotationOrder: 4
    attribute: m_LocalEulerAngles.z
    path: 
    classID: 4
    script: {fileID: 0}
  m_HasGenericRootTransform: 1
  m_HasMotionFloatCurves: 0
  m_GenerateMotionCurves: 0
  m_IsEmpty: 0
  m_Events: []
