%YAML 1.1
%TAG !u! tag:unity3d.com,2011:
--- !u!114 &11400000
MonoBehaviour:
  m_ObjectHideFlags: 0
  m_PrefabParentObject: {fileID: 0}
  m_PrefabInternal: {fileID: 0}
  m_GameObject: {fileID: 0}
  m_Enabled: 1
  m_EditorHideFlags: 0
  m_Script: {fileID: -373855183, guid: b435991485f6c8a4f9af5ca764dd7f07, type: 3}
  m_Name: FluvioManager
  m_EditorClassIdentifier: 
  m_EnableLiveEdit: 1
  m_PreloadComputeShaders: 1
  m_FixedDeltaTime: 0.033333335
  m_MaxDeltaTime: 0.33333334
  m_LimitTimestep: 1
  m_MotionExtrapolation: 1
  m_SolverIterations: 2
  m_UseIndexGrid: 1
  m_MaxGridSize: 64
  m_GridBucketSize: 64
  m_ThreadPriority: 2
  m_DesiredThreads: 8
  m_DesiredComputeAPI: 1
  m_OpenCLDesiredDeviceType: 4
  m_EnableOpenCLGPUOnOSX: 0
  m_OpenCLPlatformBlacklist: []
  m_OpenCLDeviceBlacklist: []
  m_SortingLayerUniqueIDs: 00000000df7a08d3
